\relax 
\providecommand\hyper@newdestlabel[2]{}
\@writefile{toc}{\contentsline {chapter}{\numberline {Cap\'itulo\hspace  {0.2cm} II}An\'alisis}{2}{chapter.2}}
\@writefile{lof}{\addvspace {10\p@ }}
\@writefile{lot}{\addvspace {10\p@ }}
\newlabel{C2}{{Cap\'itulo\hspace  {0.2cm} II}{2}{An\'alisis}{chapter.2}{}}
\@writefile{toc}{\contentsline {section}{\numberline {2.1}Contexto}{2}{section.2.1}}
\@writefile{toc}{\contentsline {subsection}{\numberline {2.1.1}Presentaci\'on general de la situaci\'on actual}{2}{subsection.2.1.1}}
\@writefile{toc}{\contentsline {subsection}{\numberline {2.1.2}Descripci\'on detallada del software}{5}{subsection.2.1.2}}
\@writefile{toc}{\contentsline {subsection}{\numberline {2.1.3}Descripci\'on de clientes y usuarios}{6}{subsection.2.1.3}}
\@writefile{toc}{\contentsline {section}{\numberline {2.2}Especificaci\'on de requerimientos}{6}{section.2.2}}
\@writefile{toc}{\contentsline {subsection}{\numberline {2.2.1}Objetivos Generales}{6}{subsection.2.2.1}}
\gdef \LT@i {\LT@entry 
    {1}{44.40416pt}\LT@entry 
    {1}{353.83305pt}\LT@entry 
    {1}{69.44861pt}}
\gdef \LT@ii {\LT@entry 
    {1}{140.83739pt}\LT@entry 
    {1}{325.3803pt}}
\@writefile{toc}{\contentsline {subsection}{\numberline {2.2.2}Lista de funciones del sistema}{7}{subsection.2.2.2}}
\newlabel{c2:tab1}{{2.1}{7}{Lista de funciones del sistema}{table.2.1}{}}
\@writefile{lot}{\contentsline {table}{\numberline {2.1}{Lista de funciones de ....}}{7}{table.2.1}}
\@writefile{toc}{\contentsline {subsection}{\numberline {2.2.3}Lista de atributos del sistema}{7}{subsection.2.2.3}}
\newlabel{c2:tab3}{{2.2}{7}{Lista de atributos del sistema}{table.2.2}{}}
\@writefile{lot}{\contentsline {table}{\numberline {2.2}{Lista de Atributos del sistema.}}{7}{table.2.2}}
\gdef \LT@iii {\LT@entry 
    {1}{83.93187pt}\LT@entry 
    {1}{83.53188pt}\LT@entry 
    {1}{225.79565pt}\LT@entry 
    {1}{73.76047pt}}
\@writefile{toc}{\contentsline {subsection}{\numberline {2.2.4}Lista de atributos del sistema por funcionalidad}{8}{subsection.2.2.4}}
\newlabel{c2:tab4}{{2.3}{8}{Lista de atributos del sistema por funcionalidad}{table.2.3}{}}
\@writefile{lot}{\contentsline {table}{\numberline {2.3}{Lista de atributos del sistema por funcionalidad.}}{8}{table.2.3}}
\gdef \LT@iv {\LT@entry 
    {1}{69.70549pt}\LT@entry 
    {1}{154.66377pt}\LT@entry 
    {1}{154.66377pt}}
\@writefile{toc}{\contentsline {section}{\numberline {2.3}Actores}{9}{section.2.3}}
\newlabel{c2:tab5}{{2.4}{9}{Actores}{table.2.4}{}}
\@writefile{lot}{\contentsline {table}{\numberline {2.4}{Lista de actores del sistema.}}{9}{table.2.4}}
\@setckpt{capitulo_2/Capitulo2}{
\setcounter{page}{11}
\setcounter{equation}{0}
\setcounter{enumi}{0}
\setcounter{enumii}{0}
\setcounter{enumiii}{0}
\setcounter{enumiv}{0}
\setcounter{footnote}{0}
\setcounter{mpfootnote}{0}
\setcounter{part}{0}
\setcounter{chapter}{2}
\setcounter{section}{3}
\setcounter{subsection}{0}
\setcounter{subsubsection}{0}
\setcounter{paragraph}{0}
\setcounter{subparagraph}{0}
\setcounter{figure}{0}
\setcounter{table}{4}
\setcounter{parentequation}{0}
\setcounter{subfigure}{0}
\setcounter{lofdepth}{1}
\setcounter{subtable}{0}
\setcounter{lotdepth}{1}
\setcounter{LT@tables}{4}
\setcounter{LT@chunks}{1}
\setcounter{float@type}{4}
\setcounter{thm}{0}
\setcounter{defn}{0}
\setcounter{rem}{0}
\setcounter{Item}{0}
\setcounter{Hfootnote}{0}
\setcounter{bookmark@seq@number}{14}
\setcounter{section@level}{0}
}
