\relax 
\providecommand\hyper@newdestlabel[2]{}
\@writefile{toc}{\contentsline {chapter}{\numberline {Cap\'itulo\hspace  {0.2cm} III}Casos de Uso}{11}{chapter.3}}
\@writefile{lof}{\addvspace {10\p@ }}
\@writefile{lot}{\addvspace {10\p@ }}
\newlabel{C3}{{Cap\'itulo\hspace  {0.2cm} III}{11}{Casos de Uso}{chapter.3}{}}
\@writefile{toc}{\contentsline {section}{\numberline {3.1}Presentaci'general de los Casos de Uso}{11}{section.3.1}}
\newlabel{c3:tab1}{{3.1}{11}{Presentaci'\on general de los Casos de Uso}{table.3.1}{}}
\@writefile{lot}{\contentsline {table}{\numberline {3.1}{Lista de casos de usos.}}{11}{table.3.1}}
\gdef \LT@v {\LT@entry 
    {1}{69.70549pt}\LT@entry 
    {1}{154.66377pt}\LT@entry 
    {1}{268.4748pt}}
\@writefile{toc}{\contentsline {section}{\numberline {3.2}Diagrama de Casos de Uso}{13}{section.3.2}}
\@writefile{lof}{\contentsline {figure}{\numberline {3.1}{\ignorespaces Diagrama de Casos de Usos.}}{13}{figure.3.1}}
\newlabel{c3:fig1}{{3.1}{13}{Diagrama de Casos de Usos}{figure.3.1}{}}
\gdef \LT@vi {\LT@entry 
    {1}{139.33893pt}\LT@entry 
    {1}{89.70216pt}\LT@entry 
    {1}{229.98767pt}}
\@writefile{toc}{\contentsline {section}{\numberline {3.3}Descripci\'on textual y gr\'afica de los Casos de Uso}{14}{section.3.3}}
\@writefile{toc}{\contentsline {subsection}{\numberline {3.3.1}Descripci'del Caso de Uso: \textit  {Nombre de Caso}}{14}{subsection.3.3.1}}
\newlabel{c3:cu1:dt}{{3.2}{14}{Descripci'\on del Caso de Uso: \textit {Nombre de Caso}}{table.3.2}{}}
\@writefile{lot}{\contentsline {table}{\numberline {3.2}{Descripción textual de \textit  {Listar Productos}.}}{14}{table.3.2}}
\@writefile{lof}{\contentsline {figure}{\numberline {3.2}{\ignorespaces Modelo conceptual de \textit  {Listar Productos}.}}{15}{figure.3.2}}
\newlabel{c3:cu1:mc}{{3.2}{15}{Modelo conceptual de \textit {Listar Productos}}{figure.3.2}{}}
\@writefile{lof}{\contentsline {figure}{\numberline {3.3}{\ignorespaces Diagrama de clases de \textit  {Listar Productos}.}}{15}{figure.3.3}}
\newlabel{c3:cu1:dc}{{3.3}{15}{Diagrama de clases de \textit {Listar Productos}}{figure.3.3}{}}
\@writefile{lof}{\contentsline {figure}{\numberline {3.4}{\ignorespaces Diagrama de secuencia de sistema de \textit  {Listar Productos}.}}{16}{figure.3.4}}
\newlabel{c3:cu1:dss}{{3.4}{16}{Diagrama de secuencia de sistema de \textit {Listar Productos}}{figure.3.4}{}}
\@setckpt{capitulo_3/Capitulo3}{
\setcounter{page}{17}
\setcounter{equation}{0}
\setcounter{enumi}{0}
\setcounter{enumii}{0}
\setcounter{enumiii}{0}
\setcounter{enumiv}{0}
\setcounter{footnote}{0}
\setcounter{mpfootnote}{0}
\setcounter{part}{0}
\setcounter{chapter}{3}
\setcounter{section}{3}
\setcounter{subsection}{1}
\setcounter{subsubsection}{0}
\setcounter{paragraph}{0}
\setcounter{subparagraph}{0}
\setcounter{figure}{4}
\setcounter{table}{2}
\setcounter{parentequation}{0}
\setcounter{subfigure}{0}
\setcounter{lofdepth}{1}
\setcounter{subtable}{0}
\setcounter{lotdepth}{1}
\setcounter{LT@tables}{6}
\setcounter{LT@chunks}{1}
\setcounter{float@type}{4}
\setcounter{thm}{0}
\setcounter{defn}{0}
\setcounter{rem}{0}
\setcounter{Item}{0}
\setcounter{Hfootnote}{0}
\setcounter{bookmark@seq@number}{19}
\setcounter{section@level}{0}
}
